4 corners, nella prima riga va inserito uno dei nomi di food schema che trovate a riga 134 e seguenti di model. nelle righe successive invece si inserisce la percentuale (positiva o negativa) rispetto a cui viene piazzato il muro rispetto al centro (es se si mette 1 va a finire sul bordo mentre con 0 è nel centro)
0.23,0.39
0.23,0.39125
0.23,0.38875
0.23125,0.39
0.22875,0.39
0.2325,0.3875
0.2325,0.38875
0.2325,0.38625
0.23375,0.3875
0.23125,0.3875
0.235,0.385
0.235,0.38625
0.235,0.38375
0.23625,0.385
0.23375,0.385
0.2375,0.3825
0.2375,0.38375
0.2375,0.38125
0.23875,0.3825
0.23625,0.3825
0.24,0.38
0.24,0.38125
0.24,0.37875
0.24125,0.38
0.23875,0.38
0.2425,0.3775
0.2425,0.37875
0.2425,0.37625
0.24375,0.3775
0.24125,0.3775
0.245,0.375
0.245,0.37625
0.245,0.37375
0.24625,0.375
0.24375,0.375
0.2475,0.3725
0.2475,0.37375
0.2475,0.37125
0.24875,0.3725
0.24625,0.3725
0.25,0.37
0.25,0.37125
0.25,0.36875
0.25125,0.37
0.24875,0.37
0.2525,0.3675
0.2525,0.36875
0.2525,0.36625
0.25375,0.3675
0.25125,0.3675
0.255,0.365
0.255,0.36625
0.255,0.36375
0.25625,0.365
0.25375,0.365
0.2575,0.3625
0.2575,0.36375
0.2575,0.36125
0.25875,0.3625
0.25625,0.3625
0.26,0.36
0.26,0.36125
0.26,0.35875
0.26125,0.36
0.25875,0.36
0.2625,0.3575
0.2625,0.35875
0.2625,0.35625
0.26375,0.3575
0.26125,0.3575
0.265,0.355
0.265,0.35625
0.265,0.35375
0.26625,0.355
0.26375,0.355
0.2675,0.3525
0.2675,0.35375
0.2675,0.35125
0.26875,0.3525
0.26625,0.3525
0.27,0.35
0.27,0.35125
0.27,0.34875
0.27125,0.35
0.26875,0.35
0.2725,0.3475
0.2725,0.34875
0.2725,0.34625
0.27375,0.3475
0.27125,0.3475
0.275,0.345
0.275,0.34625
0.275,0.34375
0.27625,0.345
0.27375,0.345
0.2775,0.3425
0.2775,0.34375
0.2775,0.34125
0.27875,0.3425
0.27625,0.3425
0.28,0.34
0.28,0.34125
0.28,0.33875
0.28125,0.34
0.27875,0.34
0.2825,0.3375
0.2825,0.33875
0.2825,0.33625
0.28375,0.3375
0.28125,0.3375
0.285,0.335
0.285,0.33625
0.285,0.33375
0.28625,0.335
0.28375,0.335
0.2875,0.3325
0.2875,0.33375
0.2875,0.33125
0.28875,0.3325
0.28625,0.3325
0.29,0.33
0.29,0.33125
0.29,0.32875
0.29125,0.33
0.28875,0.33
0.2925,0.3275
0.2925,0.32875
0.2925,0.32625
0.29375,0.3275
0.29125,0.3275
0.295,0.325
0.295,0.32625
0.295,0.32375
0.29625,0.325
0.29375,0.325
0.2975,0.3225
0.2975,0.32375
0.2975,0.32125
0.29875,0.3225
0.29625,0.3225
0.3,0.32
0.3,0.32125
0.3,0.31875
0.30125,0.32
0.29875,0.32
0.3025,0.3175
0.3025,0.31875
0.3025,0.31625
0.30375,0.3175
0.30125,0.3175
0.305,0.315
0.305,0.31625
0.305,0.31375
0.30625,0.315
0.30375,0.315
0.3075,0.3125
0.3075,0.31375
0.3075,0.31125
0.30875,0.3125
0.30625,0.3125
0.31,0.31
0.31,0.31125
0.31,0.30875
0.31125,0.31
0.30875,0.31
0.3125,0.3075
0.3125,0.30875
0.3125,0.30625
0.31375,0.3075
0.31125,0.3075
0.315,0.305
0.315,0.30625
0.315,0.30375
0.31625,0.305
0.31375,0.305
0.3175,0.3025
0.3175,0.30375
0.3175,0.30125
0.31875,0.3025
0.31625,0.3025
0.32,0.3
0.32,0.30125
0.32,0.29875
0.32125,0.3
0.31875,0.3
0.3225,0.2975
0.3225,0.29875
0.3225,0.29625
0.32375,0.2975
0.32125,0.2975
0.325,0.295
0.325,0.29625
0.325,0.29375
0.32625,0.295
0.32375,0.295
0.3275,0.2925
0.3275,0.29375
0.3275,0.29125
0.32875,0.2925
0.32625,0.2925
0.33,0.29
0.33,0.29125
0.33,0.28875
0.33125,0.29
0.32875,0.29
0.3325,0.2875
0.3325,0.28875
0.3325,0.28625
0.33375,0.2875
0.33125,0.2875
0.335,0.285
0.335,0.28625
0.335,0.28375
0.33625,0.285
0.33375,0.285
0.3375,0.2825
0.3375,0.28375
0.3375,0.28125
0.33875,0.2825
0.33625,0.2825
0.34,0.28
0.34,0.28125
0.34,0.27875
0.34125,0.28
0.33875,0.28
0.3425,0.2775
0.3425,0.27875
0.3425,0.27625
0.34375,0.2775
0.34125,0.2775
0.345,0.275
0.345,0.27625
0.345,0.27375
0.34625,0.275
0.34375,0.275
0.3475,0.2725
0.3475,0.27375
0.3475,0.27125
0.34875,0.2725
0.34625,0.2725
0.35,0.27
0.35,0.27125
0.35,0.26875
0.35125,0.27
0.34875,0.27
0.3525,0.2675
0.3525,0.26875
0.3525,0.26625
0.35375,0.2675
0.35125,0.2675
0.355,0.265
0.355,0.26625
0.355,0.26375
0.35625,0.265
0.35375,0.265
0.3575,0.2625
0.3575,0.26375
0.3575,0.26125
0.35875,0.2625
0.35625,0.2625
0.36,0.26
0.36,0.26125
0.36,0.25875
0.36125,0.26
0.35875,0.26
0.3625,0.2575
0.3625,0.25875
0.3625,0.25625
0.36375,0.2575
0.36125,0.2575
0.365,0.255
0.365,0.25625
0.365,0.25375
0.36625,0.255
0.36375,0.255
0.3675,0.2525
0.3675,0.25375
0.3675,0.25125
0.36875,0.2525
0.36625,0.2525
0.37,0.25
0.37,0.25125
0.37,0.24875
0.37125,0.25
0.36875,0.25
0.3725,0.2475
0.3725,0.24875
0.3725,0.24625
0.37375,0.2475
0.37125,0.2475
0.375,0.245
0.375,0.24625
0.375,0.24375
0.37625,0.245
0.37375,0.245
0.3775,0.2425
0.3775,0.24375
0.3775,0.24125
0.37875,0.2425
0.37625,0.2425
0.38,0.24
0.38,0.24125
0.38,0.23875
0.38125,0.24
0.37875,0.24
0.3825,0.2375
0.3825,0.23875
0.3825,0.23625
0.38375,0.2375
0.38125,0.2375
0.385,0.235
0.385,0.23625
0.385,0.23375
0.38625,0.235
0.38375,0.235
0.3875,0.2325
0.3875,0.23375
0.3875,0.23125
0.38875,0.2325
0.38625,0.2325
0.39,0.23
0.39,0.23125
0.39,0.22875
0.39125,0.23
0.38875,0.23
0.3925,0.2275
0.3925,0.22875
0.3925,0.22625
0.39375,0.2275
0.39125,0.2275
0.395,0.225
0.395,0.22625
0.395,0.22375
0.39625,0.225
0.39375,0.225
0.3975,0.2225
0.3975,0.22375
0.3975,0.22125
0.39875,0.2225
0.39625,0.2225
0.4,0.22
0.4,0.22125
0.4,0.21875
0.40125,0.22
0.39875,0.22
0.4025,0.2175
0.4025,0.21875
0.4025,0.21625
0.40375,0.2175
0.40125,0.2175
0.405,0.215
0.405,0.21625
0.405,0.21375
0.40625,0.215
0.40375,0.215
0.4075,0.2125
0.4075,0.21375
0.4075,0.21125
0.40875,0.2125
0.40625,0.2125
0.41,0.21
0.41,0.21125
0.41,0.20875
0.41125,0.21
0.40875,0.21
0.4125,0.2075
0.4125,0.20875
0.4125,0.20625
0.41375,0.2075
0.41125,0.2075
0.415,0.205
0.415,0.20625
0.415,0.20375
0.41625,0.205
0.41375,0.205
0.4175,0.2025
0.4175,0.20375
0.4175,0.20125
0.41875,0.2025
0.41625,0.2025
0.42,0.2
0.42,0.20125
0.42,0.19875
0.42125,0.2
0.41875,0.2
0.4225,0.1975
0.4225,0.19875
0.4225,0.19625
0.42375,0.1975
0.42125,0.1975
0.425,0.195
0.425,0.19625
0.425,0.19375
0.42625,0.195
0.42375,0.195
0.4275,0.1925
0.4275,0.19375
0.4275,0.19125
0.42875,0.1925
0.42625,0.1925