mondo,muri,feromone,devStandard,aad
100,1,0,185.13689,0.3375,0.07512 
100,1,1,152.66881,0.26167,0.07144 
125,1,0,160.40989,0.3025,0.04966 
125,1,1,168.45583,0.29833,0.05763 
150,1,0,121.17309,0.36,0.02686 
150,1,1,140.59398,0.3975,0.03813 
175,1,0,557.43609,0.31,0.10758 
175,1,1,299.43558,0.255,0.06759 
200,1,0,700.82572,0.28556,0.10802 
200,1,1,566.41514,0.33333,0.10142 
225,1,0,838.55576,0.33,0.10576 
225,1,1,564.03335,0.33571,0.08249 
250,1,0,660.21057,0.38167,0.07295 
250,1,1,1242.85062,0.32571,0.16103 
30,1,0,59.15728,0.4225,0.09175 
30,1,1,16.31462,0.33833,0.02846 
40,1,0,50.67873,0.3475,0.05723 
40,1,1,51.14554,0.26333,0.06247 
50,1,0,92.67281,0.42,0.08381 
50,1,1,47.55067,0.32667,0.04753 
60,1,0,66.71019,0.44,0.04842 
60,1,1,75.83842,0.34833,0.05926 
75,1,0,70.74367,0.3425,0.03961 
75,1,1,100.53208,0.29833,0.06556 
85,1,0,191.31998,0.335,0.09556 
85,1,1,62.07737,0.27,0.03439 
100,0,0,100.04332,0.28,0.05257 
100,0,1,53.86805,0.22,0.03249 
125,0,0,142.5912,0.33,0.05356 
125,0,1,180.78578,0.265,0.08123 
150,0,0,242.5536,0.4175,0.06929 
150,0,1,268.38033,0.37667,0.09999 
175,0,0,309.58521,0.3175,0.07539 
175,0,1,179.61153,0.344,0.05228 
200,0,0,327.90128,0.31444,0.06422 
200,0,1,342.80461,0.21,0.08505 
225,0,0,755.00004,0.225,0.12093 
225,0,1,183.07749,0.26167,0.03415 
250,0,0,1007.82995,0.43333,0.1307 
250,0,1,642.74145,0.25,0.11449 
30,0,0,22.2486,0.2725,0.05097 
30,0,1,8.7178,0.33333,0.02163 
40,0,0,32.52179,0.2825,0.04946 
40,0,1,15.46609,0.26333,0.02613 
50,0,0,42.52352,0.31,0.05408 
50,0,1,24.30432,0.34667,0.03465 
60,0,0,105.09202,0.325,0.10159 
60,0,1,47.15082,0.33833,0.05216 
75,0,0,109.10965,0.3375,0.08443 
75,0,1,44.26473,0.31667,0.04118 
85,0,0,42.56368,0.3425,0.02797 
85,0,1,39.25642,0.32667,0.02919 
