lato,feromone_attivo,muri,step_meta,step_finire
30,0,1,76,600
40,0,1,117,865
50,0,1,185,1178
60,0,1,229,1328
75,0,1,338,1809
85,0,1,443,2066
100,0,1,585,2483
125,0,1,826,3177
150,0,1,1384,4554
175,0,1,1875,5346
200,0,1,2276,6260
30,1,1,45,568
40,1,1,71,810
50,1,1,98,997
60,1,1,154,1242
75,1,1,195,1523
85,1,1,254,1781
100,1,1,342,2133
125,1,1,572,2857
150,1,1,806,3643
175,1,1,1061,4432
200,1,1,1418,5800
30,1,0,37,400
40,1,0,53,590
50,1,0,69,708
60,1,0,114,873
75,1,0,136,1095
85,1,0,174,1339
100,1,0,242,1661
125,1,0,364,2220
150,1,0,485,2534
175,1,0,682,3446
200,1,0,993,4025
30,0,0,54,440
40,0,0,98,652
50,0,0,126,786
60,0,0,189,1005
75,0,0,272,1236
85,0,0,394,1526
100,0,0,414,1926
125,0,0,745,2676
150,0,0,1067,3332
175,0,0,1536,4059
200,0,0,2000,4983
225,0,0,2651,6069
225,0,1,3272,7774
225,1,0,1298,5411
225,1,1,1882,7088
250,0,0,3201,8401
250,0,1,3581,9400
250,1,0,1662,6400
250,1,1,2365,7890